Convert Axivity CWA Files • read.cwa
…
#> Reading in the CSV: /var/folders/1s/wrtqcpxn685_zk570bnx9_rr0000gr/T//RtmpmZ8vUR/file13e5b72c7ed88.csv
head(out)
#> $data
#> # A tibble: 17,400 x 4
#>    time                    X      Y      Z
#>    <dttm>              <dbl>  <dbl>  <dbl>
#>  1 2019-02-26 10:55:06 0.328  0.984  0.203
#>  2 2019-02-26 10:55:06 0.828 -0.359 -0.375
#>  3 2019-02-26 10:55:06 0.875 -0.391 -0.391
#>  4 2019-02-26 10:55:06 0.891 -0.391 -0.391
#>  5 2019-02-26 10:55:06 0.891 -0.375 -0.391
#>  6 2019-02-26 10:55:06 0.875 -0.359 -0.375
#>  7 2019-02-26 10:55:06 0.875 -0.359 -0.391
#>  8 2019-02-26 10:55:06 0.875 -0.359 -0.406
#>  9 2019-02-26 10:55:06 0.875 -0.359 -0.406
#> 10 2019-02-26 10:55:06 0.891 -0.344 -0.406
#> # … with 17,390 more rows
…
#> Reading in the CSV: /var/folders/1s/wrtqcpxn685_zk570bnx9_rr0000gr/T//RtmpmZ8vUR/file13e5b76c943c4.csv
head(out)
#> $data
#> # A tibble: 17,400 x 4
#>    time                    X      Y      Z
#>    <dttm>              <dbl>  <dbl>  <dbl>
#>  1 2019-02-26 10:55:06 0.328  0.984  0.203
#>  2 2019-02-26 10:55:06 0.828 -0.359 -0.375
#>  3 2019-02-26 10:55:06 0.875 -0.391 -0.391
#>  4 2019-02-26 10:55:06 0.891 -0.391 -0.391
#>  5 2019-02-26 10:55:06 0.891 -0.375 -0.391
#>  6 2019-02-26 10:55:06 0.875 -0.359 -0.375
#>  7 2019-02-26 10:55:06 0.875 -0.359 -0.391
#>  8 2019-02-26 10:55:06 0.875 -0.359 -0.406
#>  9 2019-02-26 10:55:06 0.875 -0.359 -0.406
#> 10 2019-02-26 10:55:06 0.891 -0.344 -0.406
#> # … with 17,390 more rows
…
